\babel@toc {french}{}
\contentsline {section}{\numberline {1}Mersenne Twister}{2}{section.1}%
\contentsline {section}{\numberline {2}Génération uniforme}{2}{section.2}%
\contentsline {section}{\numberline {3}Distribution discrète empirique}{3}{section.3}%
\contentsline {section}{\numberline {4}Reproduction de distribution continue}{5}{section.4}%
\contentsline {section}{\numberline {5}Simulation d'une loi non réversible}{6}{section.5}%
