\relax 
\providecommand\hyper@newdestlabel[2]{}
\@nameuse{bbl@beforestart}
\catcode `:\active 
\catcode `;\active 
\catcode `!\active 
\catcode `?\active 
\providecommand\HyperFirstAtBeginDocument{\AtBeginDocument}
\HyperFirstAtBeginDocument{\ifx\hyper@anchor\@undefined
\global\let\oldcontentsline\contentsline
\gdef\contentsline#1#2#3#4{\oldcontentsline{#1}{#2}{#3}}
\global\let\oldnewlabel\newlabel
\gdef\newlabel#1#2{\newlabelxx{#1}#2}
\gdef\newlabelxx#1#2#3#4#5#6{\oldnewlabel{#1}{{#2}{#3}}}
\AtEndDocument{\ifx\hyper@anchor\@undefined
\let\contentsline\oldcontentsline
\let\newlabel\oldnewlabel
\fi}
\fi}
\global\let\hyper@last\relax 
\gdef\HyperFirstAtBeginDocument#1{#1}
\providecommand\HyField@AuxAddToFields[1]{}
\providecommand\HyField@AuxAddToCoFields[2]{}
\babel@aux{french}{}
\@writefile{toc}{\contentsline {section}{\numberline {1}Mersenne Twister}{2}{section.1}\protected@file@percent }
\@writefile{toc}{\contentsline {section}{\numberline {2}Génération uniforme}{2}{section.2}\protected@file@percent }
\@writefile{toc}{\contentsline {section}{\numberline {3}Distribution discrète empirique}{3}{section.3}\protected@file@percent }
\@writefile{toc}{\contentsline {section}{\numberline {4}Reproduction de distribution continue}{5}{section.4}\protected@file@percent }
\@writefile{toc}{\contentsline {section}{\numberline {5}Simulation d'une loi non réversible}{6}{section.5}\protected@file@percent }
\gdef\minted@oldcachelist{,
  default-pyg-prefix.pygstyle,
  default.pygstyle,
  01D704682334972A2744BF0D9F485C04F2B2D7EDBEAD34318FC58B59C29F147E.pygtex,
  default.pygstyle,
  3118238DB7D50BFEC32BA7F79431DA14915E92BB401990E9587E4C7F53B4BFCA.pygtex,
  740AE845F2D92383246B9B646D1FAB38915E92BB401990E9587E4C7F53B4BFCA.pygtex,
  E59E1D96C77D0D0A29DD2914084DAE0F915E92BB401990E9587E4C7F53B4BFCA.pygtex,
  4587C380BCE4D9413DCA580824FF921D915E92BB401990E9587E4C7F53B4BFCA.pygtex}
