\relax 
\providecommand\babel@aux[2]{}
\@nameuse{bbl@beforestart}
\catcode `:\active 
\catcode `;\active 
\catcode `!\active 
\catcode `?\active 
\providecommand\hyper@newdestlabel[2]{}
\providecommand\HyField@AuxAddToFields[1]{}
\providecommand\HyField@AuxAddToCoFields[2]{}
\babel@aux{french}{}
\@writefile{toc}{\contentsline {section}{\numberline {1}Introduction}{2}{section.1}\protected@file@percent }
\@writefile{toc}{\contentsline {section}{\numberline {2}Simulation de $\pi $}{2}{section.2}\protected@file@percent }
\@writefile{toc}{\contentsline {section}{\numberline {3}Interprétation des résultats}{3}{section.3}\protected@file@percent }
\@writefile{toc}{\contentsline {subsection}{\numberline {3.1}Moyenne}{3}{subsection.3.1}\protected@file@percent }
\@writefile{toc}{\contentsline {subsection}{\numberline {3.2}L'intervalle de confiance}{4}{subsection.3.2}\protected@file@percent }
\gdef\minted@oldcachelist{,
  monokai.pygstyle,
  1E114E12A7780C6DD1765E6F842EC85C7C4AB9D035CB81426C48597152E578CC.pygtex,
  EA99597ECAD5E52A66F36E49A73E27BD7C4AB9D035CB81426C48597152E578CC.pygtex,
  C16177C30439578FA3BA4B35B16793077C4AB9D035CB81426C48597152E578CC.pygtex}
\@writefile{toc}{\contentsline {section}{\numberline {4}Conclusion}{5}{section.4}\protected@file@percent }
\gdef \@abspage@last{6}
