\babel@toc {french}{}\relax 
\contentsline {section}{\numberline {1}Introduction}{2}{section.1}%
\contentsline {section}{\numberline {2}Simulation de $\pi $}{2}{section.2}%
\contentsline {section}{\numberline {3}Interprétation des résultats}{3}{section.3}%
\contentsline {subsection}{\numberline {3.1}Moyenne}{3}{subsection.3.1}%
\contentsline {subsection}{\numberline {3.2}L'intervalle de confiance}{4}{subsection.3.2}%
\contentsline {section}{\numberline {4}Conclusion}{5}{section.4}%
